{
    "content": [
        {
            "deviceId": 154,
            "customerId": 21,
            "customerName": "João Victor Almeida Santos",
            "type": "Secadora",
            "brand": "Electrolux",
            "model": "Turbo Eco",
            "status": "EM_ANDAMENTO",
            "problem": "Secadora Electrolux João Victor",
            "hasUrgency": true,
            "hasRevision": false,
            "entryDate": "20/08/2024"
        },
        {
            "deviceId": 151,
            "customerId": 20,
            "customerName": "João Paulo Ferreira",
            "type": "Aspirador robô",
            "brand": "Samsung",
            "model": "Silent Pro",
            "status": "EM_ANDAMENTO",
            "problem": "Aspirador Samsung João Paulo",
            "hasUrgency": false,
            "hasRevision": false,
            "entryDate": "15/08/2024"
        },
        {
            "deviceId": 106,
            "customerId": 10,
            "customerName": "João Silva",
            "type": "Micro-ondas",
            "brand": "Britania",
            "model": "Mega Plus",
            "status": "PRONTO",
            "problem": "Micro-ondas Britania",
            "hasUrgency": true,
            "hasRevision": false,
            "entryDate": "01/08/2024"
        },
        {
            "deviceId": 135,
            "customerId": 13,
            "customerName": "Adilson Ferreira da Silva",
            "type": "Aspirador robô",
            "brand": "Samsung",
            "model": "Silent Pro",
            "status": "NOVO",
            "problem": "Aspirador Samsung Adilson",
            "hasUrgency": false,
            "hasRevision": false,
            "entryDate": "01/08/2024"
        },
        {
            "deviceId": 148,
            "customerId": 19,
            "customerName": "João Pedro da Silva",
            "type": "Liquidificador",
            "brand": "Panasonic",
            "model": "Power Mix",
            "status": "PRONTO",
            "problem": "Liquidificador Panasonic João Pedro",
            "hasUrgency": false,
            "hasRevision": true,
            "entryDate": "01/08/2024"
        },
        {
            "deviceId": 145,
            "customerId": 18,
            "customerName": "Paulo Henrique Santos",
            "type": "Ventilador",
            "brand": "Consul",
            "model": "Turbo 3000",
            "status": "EM_ANDAMENTO",
            "problem": "Ventilador Consul Paulo",
            "hasUrgency": true,
            "hasRevision": false,
            "entryDate": "01/08/2024"
        },
        {
            "deviceId": 143,
            "customerId": 17,
            "customerName": "Ana Beatriz Souza",
            "type": "Chaleira elétrica",
            "brand": "Panasonic",
            "model": "Silent Air",
            "status": "AGUARDANDO",
            "problem": "Chaleira Panasonic Ana",
            "hasUrgency": true,
            "hasRevision": true,
            "entryDate": "30/07/2024"
        },
        {
            "deviceId": 141,
            "customerId": 16,
            "customerName": "José Carlos da Silva",
            "type": "Ferro a vapor",
            "brand": "Consul",
            "model": "Mega Pro",
            "status": "EM_ANDAMENTO",
            "problem": "Ferro a vapor Consul José Carlos",
            "hasUrgency": true,
            "hasRevision": false,
            "entryDate": "25/07/2024"
        },
        {
            "deviceId": 153,
            "customerId": 21,
            "customerName": "João Victor Almeida Santos",
            "type": "Ventilador de mesa",
            "brand": "Britânia",
            "model": "Silent Pro",
            "status": "PRONTO",
            "problem": "Ventilador Britânia João Victor",
            "hasUrgency": false,
            "hasRevision": true,
            "entryDate": "20/07/2024"
        },
        {
            "deviceId": 139,
            "customerId": 15,
            "customerName": "Maria Aparecida de Oliveira",
            "type": "Ventilador de coluna",
            "brand": "Wallita",
            "model": "Smart Breeze",
            "status": "PRONTO",
            "problem": "Ventilador Wallita Maria Aparecida",
            "hasUrgency": false,
            "hasRevision": true,
            "entryDate": "20/07/2024"
        },
        {
            "deviceId": 150,
            "customerId": 20,
            "customerName": "João Paulo Ferreira",
            "type": "Ventilador",
            "brand": "Consul",
            "model": "Turbo 3000",
            "status": "AGUARDANDO",
            "problem": "Ventilador Consul João Paulo",
            "hasUrgency": true,
            "hasRevision": true,
            "entryDate": "15/07/2024"
        },
        {
            "deviceId": 137,
            "customerId": 14,
            "customerName": "Alessandro de Paula",
            "type": "Secadora",
            "brand": "Electrolux",
            "model": "Turbo Eco",
            "status": "EM_ANDAMENTO",
            "problem": "Secadora Electrolux Alessandro",
            "hasUrgency": true,
            "hasRevision": false,
            "entryDate": "15/07/2024"
        },
        {
            "deviceId": 104,
            "customerId": 11,
            "customerName": "Maria Aparecida",
            "type": "Ventilador de mesa",
            "brand": "Britânia",
            "model": "Silent Pro",
            "status": "AGUARDANDO",
            "problem": "Ventilador mesa",
            "hasUrgency": true,
            "hasRevision": true,
            "entryDate": "10/07/2024"
        },
        {
            "deviceId": 147,
            "customerId": 19,
            "customerName": "João Pedro da Silva",
            "type": "Ventilador",
            "brand": "Britânia",
            "model": "Easy Breeze",
            "status": "EM_ANDAMENTO",
            "problem": "Ventilador Britânia João Pedro",
            "hasUrgency": true,
            "hasRevision": false,
            "entryDate": "01/07/2024"
        },
        {
            "deviceId": 134,
            "customerId": 13,
            "customerName": "Adilson Ferreira da Silva",
            "type": "Ventilador",
            "brand": "Britânia",
            "model": "Easy Breeze",
            "status": "EM_ANDAMENTO",
            "problem": "Ventilador Brastenp Adilson",
            "hasUrgency": true,
            "hasRevision": false,
            "entryDate": "01/07/2024"
        }
    ],
    "pageable": {
        "pageNumber": 0,
        "pageSize": 15,
        "sort": {
            "empty": true,
            "sorted": false,
            "unsorted": true
        },
        "offset": 0,
        "paged": true,
        "unpaged": false
    },
    "last": false,
    "totalPages": 2,
    "totalElements": 27,
    "size": 15,
    "number": 0,
    "sort": {
        "empty": true,
        "sorted": false,
        "unsorted": true
    },
    "first": true,
    "numberOfElements": 15,
    "empty": false
}