{
    "content": [
        {
            "deviceId": 122,
            "customerId": 10,
            "customerName": "João Silva",
            "type": "Chaleira elétrica",
            "brand": "Britânia",
            "model": "Air Flow",
            "status": "NOVO",
            "problem": "Chaleira Britânia",
            "hasUrgency": false,
            "hasRevision": false,
            "entryDate": "2024-12-10T00:00:00"
        },
        {
            "deviceId": 121,
            "customerId": 10,
            "customerName": "João Silva",
            "type": "Aspirador robô",
            "brand": "Samsung",
            "model": "Silent Pro",
            "status": "EM_ANDAMENTO",
            "problem": "Aspirador Samsung",
            "hasUrgency": true,
            "hasRevision": false,
            "entryDate": "2024-12-05T00:00:00"
        },
        {
            "deviceId": 120,
            "customerId": 10,
            "customerName": "João Silva",
            "type": "Liquidificador",
            "brand": "Panasonic",
            "model": "Power Mix",
            "status": "NOVO",
            "problem": "Liquidificador Panasonic",
            "hasUrgency": false,
            "hasRevision": false,
            "entryDate": "2024-12-01T00:00:00"
        },
        {
            "deviceId": 119,
            "customerId": 10,
            "customerName": "João Silva",
            "type": "Ventilador",
            "brand": "Consusl",
            "model": "Turbo 3000",
            "status": "NOVO",
            "problem": "Ventilador Consusl",
            "hasUrgency": false,
            "hasRevision": false,
            "entryDate": "2024-11-25T00:00:00"
        },
        {
            "deviceId": 118,
            "customerId": 10,
            "customerName": "João Silva",
            "type": "Micro-ondas",
            "brand": "Eletrolux",
            "model": "Mega Plus",
            "status": "PRONTO",
            "problem": "Micro-ondas Eletrolux",
            "hasUrgency": false,
            "hasRevision": true,
            "entryDate": "2024-11-20T00:00:00"
        },
        {
            "deviceId": 117,
            "customerId": 10,
            "customerName": "João Silva",
            "type": "Micro-ondas",
            "brand": "Brastenp",
            "model": "Smart Cook",
            "status": "NOVO",
            "problem": "Micro-ondas Brastenp",
            "hasUrgency": false,
            "hasRevision": false,
            "entryDate": "2024-11-15T00:00:00"
        },
        {
            "deviceId": 116,
            "customerId": 10,
            "customerName": "João Silva",
            "type": "Ventilador",
            "brand": "Consul",
            "model": "Turbo 3000",
            "status": "NOVO",
            "problem": "Ventilador Consul",
            "hasUrgency": false,
            "hasRevision": false,
            "entryDate": "2024-11-10T00:00:00"
        },
        {
            "deviceId": 115,
            "customerId": 10,
            "customerName": "João Silva",
            "type": "Micro-ondas",
            "brand": "Electrolux",
            "model": "Mega Plus",
            "status": "EM_ANDAMENTO",
            "problem": "Micro-ondas Electrolux",
            "hasUrgency": true,
            "hasRevision": false,
            "entryDate": "2024-11-05T00:00:00"
        },
        {
            "deviceId": 114,
            "customerId": 10,
            "customerName": "João Silva",
            "type": "Micro-ondas",
            "brand": "Brastemp",
            "model": "Smart Cook",
            "status": "NOVO",
            "problem": "Micro-ondas Brastemp",
            "hasUrgency": false,
            "hasRevision": false,
            "entryDate": "2024-11-01T00:00:00"
        },
        {
            "deviceId": 109,
            "customerId": 10,
            "customerName": "João Silva",
            "type": "Micro-ondas",
            "brand": "Britânia",
            "model": "Smart Cook",
            "status": "NOVO",
            "problem": "Micro-ondas Britânia João",
            "hasUrgency": false,
            "hasRevision": false,
            "entryDate": "2024-10-15T00:00:00"
        },
        {
            "deviceId": 108,
            "customerId": 10,
            "customerName": "João Silva",
            "type": "Ventilador",
            "brand": "Samsung",
            "model": "Easy Breeze",
            "status": "NOVO",
            "problem": "Ventilador Samsung João",
            "hasUrgency": false,
            "hasRevision": false,
            "entryDate": "2024-10-01T00:00:00"
        },
        {
            "deviceId": 107,
            "customerId": 10,
            "customerName": "João Silva",
            "type": "Micro-ondas",
            "brand": "Samsung",
            "model": "Smart Cook",
            "status": "NOVO",
            "problem": "Outro Samsung",
            "hasUrgency": false,
            "hasRevision": false,
            "entryDate": "2024-09-01T00:00:00"
        },
        {
            "deviceId": 106,
            "customerId": 10,
            "customerName": "João Silva",
            "type": "Micro-ondas",
            "brand": "Britania",
            "model": "Mega Plus",
            "status": "PRONTO",
            "problem": "Micro-ondas Britania",
            "hasUrgency": true,
            "hasRevision": false,
            "entryDate": "2024-08-01T00:00:00"
        },
        {
            "deviceId": 101,
            "customerId": 10,
            "customerName": "João Silva",
            "type": "Micro-ondas de embutir",
            "brand": "Samsung",
            "model": "Turbo 3000",
            "status": "EM_ANDAMENTO",
            "problem": "Micro-ondas embutir",
            "hasUrgency": true,
            "hasRevision": false,
            "entryDate": "2024-06-15T00:00:00"
        },
        {
            "deviceId": 100,
            "customerId": 10,
            "customerName": "João Silva",
            "type": "Micro-ondas",
            "brand": "Samsung",
            "model": "Smart Cook",
            "status": "NOVO",
            "problem": "Micro-ondas Samsung",
            "hasUrgency": false,
            "hasRevision": false,
            "entryDate": "2024-06-01T00:00:00"
        }
    ],
    "pageable": {
        "pageNumber": 0,
        "pageSize": 15,
        "sort": {
            "empty": true,
            "sorted": false,
            "unsorted": true
        },
        "offset": 0,
        "paged": true,
        "unpaged": false
    },
    "last": false,
    "totalPages": 2,
    "totalElements": 16,
    "size": 15,
    "number": 0,
    "sort": {
        "empty": true,
        "sorted": false,
        "unsorted": true
    },
    "first": true,
    "numberOfElements": 15,
    "empty": false
}