{
    "content": [
        {
            "deviceId": 112,
            "customerId": 12,
            "customerName": "Pedro Oliveira",
            "type": "Liquidificador",
            "brand": "Arno",
            "model": "Power Mix",
            "status": "NOVO",
            "problem": "Liquidificador Arno Pedro",
            "hasUrgency": false,
            "hasRevision": false,
            "entryDate": "01/12/2024"
        },
        {
            "deviceId": 125,
            "customerId": 11,
            "customerName": "Maria Aparecida",
            "type": "Liquidificador",
            "brand": "Panasonic",
            "model": "Power Mix",
            "status": "NOVO",
            "problem": "Liquidificador Panasonic",
            "hasUrgency": false,
            "hasRevision": false,
            "entryDate": "01/12/2024"
        },
        {
            "deviceId": 119,
            "customerId": 10,
            "customerName": "João Silva",
            "type": "Ventilador",
            "brand": "Consusl",
            "model": "Turbo 3000",
            "status": "NOVO",
            "problem": "Ventilador Consusl",
            "hasUrgency": false,
            "hasRevision": false,
            "entryDate": "25/11/2024"
        },
        {
            "deviceId": 124,
            "customerId": 11,
            "customerName": "Maria Aparecida",
            "type": "Micro-ondas",
            "brand": "Eletrolux",
            "model": "Mega Plus",
            "status": "EM_ANDAMENTO",
            "problem": "Micro-ondas Eletrolux",
            "hasUrgency": true,
            "hasRevision": false,
            "entryDate": "25/11/2024"
        },
        {
            "deviceId": 118,
            "customerId": 10,
            "customerName": "João Silva",
            "type": "Micro-ondas",
            "brand": "Eletrolux",
            "model": "Mega Plus",
            "status": "PRONTO",
            "problem": "Micro-ondas Eletrolux",
            "hasUrgency": false,
            "hasRevision": true,
            "entryDate": "20/11/2024"
        },
        {
            "deviceId": 123,
            "customerId": 11,
            "customerName": "Maria Aparecida",
            "type": "Micro-ondas",
            "brand": "Brastemp",
            "model": "Smart Cook",
            "status": "NOVO",
            "problem": "Micro-ondas Brastemp",
            "hasUrgency": false,
            "hasRevision": false,
            "entryDate": "20/11/2024"
        },
        {
            "deviceId": 111,
            "customerId": 11,
            "customerName": "Maria Aparecida",
            "type": "Micro-ondas",
            "brand": "Britânia",
            "model": "Smart Cook",
            "status": "NOVO",
            "problem": "Micro-ondas Britânia Maria",
            "hasUrgency": false,
            "hasRevision": false,
            "entryDate": "15/11/2024"
        },
        {
            "deviceId": 117,
            "customerId": 10,
            "customerName": "João Silva",
            "type": "Micro-ondas",
            "brand": "Brastenp",
            "model": "Smart Cook",
            "status": "NOVO",
            "problem": "Micro-ondas Brastenp",
            "hasUrgency": false,
            "hasRevision": false,
            "entryDate": "15/11/2024"
        },
        {
            "deviceId": 116,
            "customerId": 10,
            "customerName": "João Silva",
            "type": "Ventilador",
            "brand": "Consul",
            "model": "Turbo 3000",
            "status": "NOVO",
            "problem": "Ventilador Consul",
            "hasUrgency": false,
            "hasRevision": false,
            "entryDate": "10/11/2024"
        }
    ],
    "pageable": {
        "pageNumber": 1,
        "pageSize": 10,
        "sort": {
            "empty": true,
            "sorted": false,
            "unsorted": true
        },
        "offset": 10,
        "paged": true,
        "unpaged": false
    },
    "last": false,
    "totalPages": 6,
    "totalElements": 55,
    "first": false,
    "size": 10,
    "number": 1,
    "sort": {
        "empty": true,
        "sorted": false,
        "unsorted": true
    },
    "numberOfElements": 9,
    "empty": false
}