{
    "content": [
        {
            "deviceId": 132,
            "customerId": 12,
            "customerName": "Pedro Oliveira",
            "type": "Aspirador robô",
            "brand": "Brastemp",
            "model": "Easy Flow",
            "status": "NOVO",
            "problem": "Aspirador Brastemp",
            "hasUrgency": false,
            "hasRevision": false,
            "entryDate": "2025-01-01T00:00:00"
        },
        {
            "deviceId": 130,
            "customerId": 12,
            "customerName": "Pedro Oliveira",
            "type": "Ferro a vapor",
            "brand": "Mondial",
            "model": "Air Flow",
            "status": "NOVO",
            "problem": "Ferro a vapor Mondial",
            "hasUrgency": false,
            "hasRevision": false,
            "entryDate": "2024-12-20T00:00:00"
        },
        {
            "deviceId": 113,
            "customerId": 12,
            "customerName": "Pedro Oliveira",
            "type": "Ventilador",
            "brand": "Wallita",
            "model": "Air Flow",
            "status": "NOVO",
            "problem": "Ventilador Wallita Pedro",
            "hasUrgency": false,
            "hasRevision": false,
            "entryDate": "2024-12-15T00:00:00"
        },
        {
            "deviceId": 128,
            "customerId": 11,
            "customerName": "Maria Aparecida",
            "type": "Ventilador de coluna",
            "brand": "Wallita",
            "model": "Smart Breeze",
            "status": "NOVO",
            "problem": "Ventilador Wallita",
            "hasUrgency": false,
            "hasRevision": false,
            "entryDate": "2024-12-15T00:00:00"
        },
        {
            "deviceId": 122,
            "customerId": 10,
            "customerName": "João Silva",
            "type": "Chaleira elétrica",
            "brand": "Britânia",
            "model": "Air Flow",
            "status": "NOVO",
            "problem": "Chaleira Britânia",
            "hasUrgency": false,
            "hasRevision": false,
            "entryDate": "2024-12-10T00:00:00"
        },
        {
            "deviceId": 127,
            "customerId": 11,
            "customerName": "Maria Aparecida",
            "type": "Liquidificador",
            "brand": "Panassonic",
            "model": "Power Mix",
            "status": "PRONTO",
            "problem": "Liquidificador Panassonic",
            "hasUrgency": false,
            "hasRevision": true,
            "entryDate": "2024-12-10T00:00:00"
        },
        {
            "deviceId": 126,
            "customerId": 11,
            "customerName": "Maria Aparecida",
            "type": "Micro-ondas",
            "brand": "Brastenp",
            "model": "Smart Cook",
            "status": "NOVO",
            "problem": "Micro-ondas Brastenp",
            "hasUrgency": false,
            "hasRevision": false,
            "entryDate": "2024-12-05T00:00:00"
        },
        {
            "deviceId": 112,
            "customerId": 12,
            "customerName": "Pedro Oliveira",
            "type": "Liquidificador",
            "brand": "Arno",
            "model": "Power Mix",
            "status": "NOVO",
            "problem": "Liquidificador Arno Pedro",
            "hasUrgency": false,
            "hasRevision": false,
            "entryDate": "2024-12-01T00:00:00"
        },
        {
            "deviceId": 125,
            "customerId": 11,
            "customerName": "Maria Aparecida",
            "type": "Liquidificador",
            "brand": "Panasonic",
            "model": "Power Mix",
            "status": "NOVO",
            "problem": "Liquidificador Panasonic",
            "hasUrgency": false,
            "hasRevision": false,
            "entryDate": "2024-12-01T00:00:00"
        },
        {
            "deviceId": 119,
            "customerId": 10,
            "customerName": "João Silva",
            "type": "Ventilador",
            "brand": "Consusl",
            "model": "Turbo 3000",
            "status": "NOVO",
            "problem": "Ventilador Consusl",
            "hasUrgency": false,
            "hasRevision": false,
            "entryDate": "2024-11-25T00:00:00"
        },
        {
            "deviceId": 118,
            "customerId": 10,
            "customerName": "João Silva",
            "type": "Micro-ondas",
            "brand": "Eletrolux",
            "model": "Mega Plus",
            "status": "PRONTO",
            "problem": "Micro-ondas Eletrolux",
            "hasUrgency": false,
            "hasRevision": true,
            "entryDate": "2024-11-20T00:00:00"
        },
        {
            "deviceId": 123,
            "customerId": 11,
            "customerName": "Maria Aparecida",
            "type": "Micro-ondas",
            "brand": "Brastemp",
            "model": "Smart Cook",
            "status": "NOVO",
            "problem": "Micro-ondas Brastemp",
            "hasUrgency": false,
            "hasRevision": false,
            "entryDate": "2024-11-20T00:00:00"
        },
        {
            "deviceId": 111,
            "customerId": 11,
            "customerName": "Maria Aparecida",
            "type": "Micro-ondas",
            "brand": "Britânia",
            "model": "Smart Cook",
            "status": "NOVO",
            "problem": "Micro-ondas Britânia Maria",
            "hasUrgency": false,
            "hasRevision": false,
            "entryDate": "2024-11-15T00:00:00"
        },
        {
            "deviceId": 117,
            "customerId": 10,
            "customerName": "João Silva",
            "type": "Micro-ondas",
            "brand": "Brastenp",
            "model": "Smart Cook",
            "status": "NOVO",
            "problem": "Micro-ondas Brastenp",
            "hasUrgency": false,
            "hasRevision": false,
            "entryDate": "2024-11-15T00:00:00"
        }
    ],
    "pageable": {
        "pageNumber": 0,
        "pageSize": 15,
        "sort": {
            "empty": true,
            "sorted": false,
            "unsorted": true
        },
        "offset": 0,
        "paged": true,
        "unpaged": false
    },
    "last": false,
    "totalPages": 3,
    "totalElements": 39,
    "size": 15,
    "number": 0,
    "sort": {
        "empty": true,
        "sorted": false,
        "unsorted": true
    },
    "first": true,
    "numberOfElements": 14,
    "empty": false
}