{
    "content": [
        {
            "deviceId": 132,
            "customerId": 12,
            "customerName": "Pedro Oliveira",
            "type": "Aspirador robô",
            "brand": "Brastemp",
            "model": "Easy Flow",
            "status": "NOVO",
            "problem": "Aspirador Brastemp",
            "hasUrgency": false,
            "hasRevision": false,
            "entryDate": "01/01/2025"
        },
        {
            "deviceId": 131,
            "customerId": 12,
            "customerName": "Pedro Oliveira",
            "type": "Lava louças",
            "brand": "Arno",
            "model": "Power Flow",
            "status": "EM_ANDAMENTO",
            "problem": "Lava louças Arno",
            "hasUrgency": true,
            "hasRevision": false,
            "entryDate": "25/12/2024"
        },
        {
            "deviceId": 130,
            "customerId": 12,
            "customerName": "Pedro Oliveira",
            "type": "Ferro a vapor",
            "brand": "Mondial",
            "model": "Air Flow",
            "status": "NOVO",
            "problem": "Ferro a vapor Mondial",
            "hasUrgency": false,
            "hasRevision": false,
            "entryDate": "20/12/2024"
        },
        {
            "deviceId": 129,
            "customerId": 11,
            "customerName": "Maria Aparecida",
            "type": "Secadora",
            "brand": "Electrolux",
            "model": "Turbo Eco",
            "status": "EM_ANDAMENTO",
            "problem": "Secadora Electrolux",
            "hasUrgency": true,
            "hasRevision": false,
            "entryDate": "20/12/2024"
        },
        {
            "deviceId": 128,
            "customerId": 11,
            "customerName": "Maria Aparecida",
            "type": "Ventilador de coluna",
            "brand": "Wallita",
            "model": "Smart Breeze",
            "status": "NOVO",
            "problem": "Ventilador Wallita",
            "hasUrgency": false,
            "hasRevision": false,
            "entryDate": "15/12/2024"
        },
        {
            "deviceId": 113,
            "customerId": 12,
            "customerName": "Pedro Oliveira",
            "type": "Ventilador",
            "brand": "Wallita",
            "model": "Air Flow",
            "status": "NOVO",
            "problem": "Ventilador Wallita Pedro",
            "hasUrgency": false,
            "hasRevision": false,
            "entryDate": "15/12/2024"
        },
        {
            "deviceId": 122,
            "customerId": 10,
            "customerName": "João Silva",
            "type": "Chaleira elétrica",
            "brand": "Britânia",
            "model": "Air Flow",
            "status": "NOVO",
            "problem": "Chaleira Britânia",
            "hasUrgency": false,
            "hasRevision": false,
            "entryDate": "10/12/2024"
        },
        {
            "deviceId": 127,
            "customerId": 11,
            "customerName": "Maria Aparecida",
            "type": "Liquidificador",
            "brand": "Panassonic",
            "model": "Power Mix",
            "status": "PRONTO",
            "problem": "Liquidificador Panassonic",
            "hasUrgency": false,
            "hasRevision": true,
            "entryDate": "10/12/2024"
        },
        {
            "deviceId": 121,
            "customerId": 10,
            "customerName": "João Silva",
            "type": "Aspirador robô",
            "brand": "Samsung",
            "model": "Silent Pro",
            "status": "EM_ANDAMENTO",
            "problem": "Aspirador Samsung",
            "hasUrgency": true,
            "hasRevision": false,
            "entryDate": "05/12/2024"
        },
        {
            "deviceId": 126,
            "customerId": 11,
            "customerName": "Maria Aparecida",
            "type": "Micro-ondas",
            "brand": "Brastenp",
            "model": "Smart Cook",
            "status": "NOVO",
            "problem": "Micro-ondas Brastenp",
            "hasUrgency": false,
            "hasRevision": false,
            "entryDate": "05/12/2024"
        }
    ],
    "pageable": {
        "pageNumber": 0,
        "pageSize": 10,
        "sort": {
            "empty": true,
            "sorted": false,
            "unsorted": true
        },
        "offset": 0,
        "paged": true,
        "unpaged": false
    },
    "last": false,
    "totalPages": 6,
    "totalElements": 55,
    "size": 10,
    "number": 0,
    "sort": {
        "empty": true,
        "sorted": false,
        "unsorted": true
    },
    "first": true,
    "numberOfElements": 10,
    "empty": false
}