{
    "content": [
        {
            "deviceId": 126,
            "customerId": 11,
            "customerName": "Maria Aparecida",
            "type": "Micro-ondas",
            "brand": "Brastenp",
            "model": "Smart Cook",
            "status": "NOVO",
            "problem": "Micro-ondas Brastenp",
            "hasUrgency": false,
            "hasRevision": false,
            "entryDate": "05/12/2024"
        },
        {
            "deviceId": 124,
            "customerId": 11,
            "customerName": "Maria Aparecida",
            "type": "Micro-ondas",
            "brand": "Eletrolux",
            "model": "Mega Plus",
            "status": "EM_ANDAMENTO",
            "problem": "Micro-ondas Eletrolux",
            "hasUrgency": true,
            "hasRevision": false,
            "entryDate": "25/11/2024"
        },
        {
            "deviceId": 118,
            "customerId": 10,
            "customerName": "João Silva",
            "type": "Micro-ondas",
            "brand": "Eletrolux",
            "model": "Mega Plus",
            "status": "PRONTO",
            "problem": "Micro-ondas Eletrolux",
            "hasUrgency": false,
            "hasRevision": true,
            "entryDate": "20/11/2024"
        },
        {
            "deviceId": 123,
            "customerId": 11,
            "customerName": "Maria Aparecida",
            "type": "Micro-ondas",
            "brand": "Brastemp",
            "model": "Smart Cook",
            "status": "NOVO",
            "problem": "Micro-ondas Brastemp",
            "hasUrgency": false,
            "hasRevision": false,
            "entryDate": "20/11/2024"
        },
        {
            "deviceId": 111,
            "customerId": 11,
            "customerName": "Maria Aparecida",
            "type": "Micro-ondas",
            "brand": "Britânia",
            "model": "Smart Cook",
            "status": "NOVO",
            "problem": "Micro-ondas Britânia Maria",
            "hasUrgency": false,
            "hasRevision": false,
            "entryDate": "15/11/2024"
        },
        {
            "deviceId": 117,
            "customerId": 10,
            "customerName": "João Silva",
            "type": "Micro-ondas",
            "brand": "Brastenp",
            "model": "Smart Cook",
            "status": "NOVO",
            "problem": "Micro-ondas Brastenp",
            "hasUrgency": false,
            "hasRevision": false,
            "entryDate": "15/11/2024"
        },
        {
            "deviceId": 115,
            "customerId": 10,
            "customerName": "João Silva",
            "type": "Micro-ondas",
            "brand": "Electrolux",
            "model": "Mega Plus",
            "status": "EM_ANDAMENTO",
            "problem": "Micro-ondas Electrolux",
            "hasUrgency": true,
            "hasRevision": false,
            "entryDate": "05/11/2024"
        },
        {
            "deviceId": 114,
            "customerId": 10,
            "customerName": "João Silva",
            "type": "Micro-ondas",
            "brand": "Brastemp",
            "model": "Smart Cook",
            "status": "NOVO",
            "problem": "Micro-ondas Brastemp",
            "hasUrgency": false,
            "hasRevision": false,
            "entryDate": "01/11/2024"
        },
        {
            "deviceId": 109,
            "customerId": 10,
            "customerName": "João Silva",
            "type": "Micro-ondas",
            "brand": "Britânia",
            "model": "Smart Cook",
            "status": "NOVO",
            "problem": "Micro-ondas Britânia João",
            "hasUrgency": false,
            "hasRevision": false,
            "entryDate": "15/10/2024"
        },
        {
            "deviceId": 107,
            "customerId": 10,
            "customerName": "João Silva",
            "type": "Micro-ondas",
            "brand": "Samsung",
            "model": "Smart Cook",
            "status": "NOVO",
            "problem": "Outro Samsung",
            "hasUrgency": false,
            "hasRevision": false,
            "entryDate": "01/09/2024"
        },
        {
            "deviceId": 106,
            "customerId": 10,
            "customerName": "João Silva",
            "type": "Micro-ondas",
            "brand": "Britania",
            "model": "Mega Plus",
            "status": "PRONTO",
            "problem": "Micro-ondas Britania",
            "hasUrgency": true,
            "hasRevision": false,
            "entryDate": "01/08/2024"
        },
        {
            "deviceId": 138,
            "customerId": 15,
            "customerName": "Maria Aparecida de Oliveira",
            "type": "Micro-ondas",
            "brand": "Brastenp",
            "model": "Smart Cook",
            "status": "NOVO",
            "problem": "Micro-ondas Brastenp Maria Aparecida",
            "hasUrgency": false,
            "hasRevision": false,
            "entryDate": "20/06/2024"
        },
        {
            "deviceId": 152,
            "customerId": 21,
            "customerName": "João Victor Almeida Santos",
            "type": "Micro-ondas",
            "brand": "Britânia",
            "model": "Mega Plus",
            "status": "NOVO",
            "problem": "Micro-ondas Britânia João Victor",
            "hasUrgency": false,
            "hasRevision": false,
            "entryDate": "20/06/2024"
        },
        {
            "deviceId": 101,
            "customerId": 10,
            "customerName": "João Silva",
            "type": "Micro-ondas de embutir",
            "brand": "Samsung",
            "model": "Turbo 3000",
            "status": "EM_ANDAMENTO",
            "problem": "Micro-ondas embutir",
            "hasUrgency": true,
            "hasRevision": false,
            "entryDate": "15/06/2024"
        },
        {
            "deviceId": 136,
            "customerId": 14,
            "customerName": "Alessandro de Paula",
            "type": "Micro-ondas",
            "brand": "Electrolux",
            "model": "Mega Plus",
            "status": "NOVO",
            "problem": "Micro-ondas Electrolux Alessandro",
            "hasUrgency": false,
            "hasRevision": false,
            "entryDate": "15/06/2024"
        }
    ],
    "pageable": {
        "pageNumber": 0,
        "pageSize": 15,
        "sort": {
            "empty": true,
            "sorted": false,
            "unsorted": true
        },
        "offset": 0,
        "paged": true,
        "unpaged": false
    },
    "last": false,
    "totalPages": 2,
    "totalElements": 21,
    "first": true,
    "size": 15,
    "number": 0,
    "sort": {
        "empty": true,
        "sorted": false,
        "unsorted": true
    },
    "numberOfElements": 15,
    "empty": false
}