{
    "content": [
        {
            "deviceId": 8,
            "customerId": 2,
            "customerName": "Lucas Ribeiro Naga",
            "type": "Batedeira",
            "brand": "Britania",
            "model": "Model 3",
            "status": "AGUARDANDO",
            "problem": "Problem 8",
            "observation": "Observation 8",
            "hasUrgency": false,
            "hasRevision": true,
            "entryDate": "2023-01-04T14:41:00.968173"
        },
        {
            "deviceId": 6,
            "customerId": 2,
            "customerName": "Lucas Ribeiro Naga",
            "type": "Ventilador",
            "brand": "Arno",
            "model": "Model 1",
            "status": "EM_ANDAMENTO",
            "problem": "Problem 6",
            "observation": "Observation 6",
            "hasUrgency": false,
            "hasRevision": true,
            "entryDate": "2023-01-03T14:41:00.968173"
        },
        {
            "deviceId": 4,
            "customerId": 2,
            "customerName": "Lucas Ribeiro Naga",
            "type": "Ferro de passar",
            "brand": "Philco",
            "model": "Model 4",
            "status": "ENTREGUE",
            "problem": "Problem 4",
            "observation": "Observation 4",
            "hasUrgency": false,
            "hasRevision": true,
            "entryDate": "2023-01-02T14:41:00.968173",
            "departureDate": "2023-01-05T14:41:00.968173"
        },
        {
            "deviceId": 2,
            "customerId": 2,
            "customerName": "Lucas Ribeiro Naga",
            "type": "Liquidificador",
            "brand": "Wallita",
            "model": "Model 2",
            "status": "EM_ANDAMENTO",
            "problem": "Problem 2",
            "observation": "Observation 2",
            "hasUrgency": false,
            "hasRevision": true,
            "entryDate": "2023-01-01T14:41:00.968173"
        },
        {
            "deviceId": 3,
            "customerId": 1,
            "customerName": "Alfonso Zimmer",
            "type": "Batedeira",
            "brand": "Britania",
            "model": "Model 3",
            "status": "AGUARDANDO",
            "problem": "Problem 3",
            "observation": "Observation 3",
            "hasUrgency": true,
            "hasRevision": false,
            "entryDate": "2021-09-03T08:41:00.968173"
        }
    ],
    "pageable": {
        "pageNumber": 1,
        "pageSize": 5,
        "sort": {
            "empty": true,
            "sorted": false,
            "unsorted": true
        },
        "offset": 5,
        "paged": true,
        "unpaged": false
    },
    "last": false,
    "totalPages": 3,
    "totalElements": 15,
    "first": false,
    "size": 5,
    "number": 1,
    "sort": {
        "empty": true,
        "sorted": false,
        "unsorted": true
    },
    "numberOfElements": 5,
    "empty": false
}