{
    "content": [
        {
            "deviceId": 9,
            "customerId": 1,
            "customerName": "Alfonso Zimmer",
            "type": "Ferro de passar",
            "brand": "Philco",
            "model": "Model 4",
            "status": "ENTREGUE",
            "problem": "Problem 9",
            "observation": "Observation 9",
            "hasUrgency": true,
            "hasRevision": false,
            "entryDate": "2025-02-04T08:41:00.968173",
            "departureDate": "2021-05-01T08:41:00.968173"
        },
        {
            "deviceId": 1,
            "customerId": 1,
            "customerName": "Alfonso Zimmer",
            "type": "Ventilador",
            "brand": "Arno",
            "model": "Model 1",
            "status": "NOVO",
            "problem": "Problem 1",
            "observation": "Observation 1",
            "hasUrgency": true,
            "hasRevision": false,
            "entryDate": "2023-04-10T08:41:00.968173"
        },
        {
            "deviceId": 14,
            "customerId": 2,
            "customerName": "Lucas Ribeiro Naga",
            "type": "Ferro de passar",
            "brand": "Philco",
            "model": "Model 4",
            "status": "ENTREGUE",
            "problem": "Problem 14",
            "observation": "Observation 14",
            "hasUrgency": false,
            "hasRevision": true,
            "entryDate": "2023-01-07T14:41:00.968173",
            "departureDate": "2023-01-06T14:41:00.968173"
        }
    ],
    "pageable": {
        "pageNumber": 0,
        "pageSize": 3,
        "sort": {
            "empty": true,
            "sorted": false,
            "unsorted": true
        },
        "offset": 0,
        "paged": true,
        "unpaged": false
    },
    "last": false,
    "totalPages": 5,
    "totalElements": 15,
    "first": true,
    "size": 3,
    "number": 0,
    "sort": {
        "empty": true,
        "sorted": false,
        "unsorted": true
    },
    "numberOfElements": 3,
    "empty": false
}