{
    "content": [
        {
            "deviceId": 15,
            "customerId": 1,
            "customerName": "Alfonso Zimmer",
            "type": "Aspirador",
            "brand": "Electrolux",
            "model": "Model 5",
            "status": "DESCARTADO",
            "problem": "Problem 15",
            "observation": "Observation 15",
            "hasUrgency": true,
            "hasRevision": false,
            "entryDate": "2021-04-22T08:41:00.968173",
            "departureDate": "2021-05-04T08:41:00.968173"
        },
        {
            "deviceId": 13,
            "customerId": 1,
            "customerName": "Alfonso Zimmer",
            "type": "Batedeira",
            "brand": "Britania",
            "model": "Model 3",
            "status": "AGUARDANDO",
            "problem": "Problem 13",
            "observation": "Observation 13",
            "hasUrgency": true,
            "hasRevision": false,
            "entryDate": "2021-04-02T08:41:00.968173"
        },
        {
            "deviceId": 11,
            "customerId": 1,
            "customerName": "Alfonso Zimmer",
            "type": "Ventilador",
            "brand": "Arno",
            "model": "Model 1",
            "status": "NOVO",
            "problem": "Problem 11",
            "observation": "Observation 11",
            "hasUrgency": true,
            "hasRevision": false,
            "entryDate": "2021-04-01T08:41:00.968173"
        },
        {
            "deviceId": 7,
            "customerId": 1,
            "customerName": "Alfonso Zimmer",
            "type": "Liquidificador",
            "brand": "Wallita",
            "model": "Model 2",
            "status": "EM_ANDAMENTO",
            "problem": "Problem 7",
            "observation": "Observation 7",
            "hasUrgency": true,
            "hasRevision": false,
            "entryDate": "2020-10-10T08:41:00.968173"
        },
        {
            "deviceId": 5,
            "customerId": 1,
            "customerName": "Alfonso Zimmer",
            "type": "Aspirador",
            "brand": "Electrolux",
            "model": "Model 5",
            "status": "DESCARTADO",
            "problem": "Problem 5",
            "observation": "Observation 5",
            "hasUrgency": true,
            "hasRevision": false,
            "entryDate": "2017-04-28T08:41:00.968173",
            "departureDate": "2021-04-28T08:41:00.968173"
        }
    ],
    "pageable": {
        "pageNumber": 2,
        "pageSize": 5,
        "sort": {
            "empty": true,
            "sorted": false,
            "unsorted": true
        },
        "offset": 10,
        "paged": true,
        "unpaged": false
    },
    "last": true,
    "totalPages": 3,
    "totalElements": 15,
    "first": false,
    "size": 5,
    "number": 2,
    "sort": {
        "empty": true,
        "sorted": false,
        "unsorted": true
    },
    "numberOfElements": 5,
    "empty": false
}